<svg width="376" height="790" viewBox="0 0 376 790" fill="none" xmlns="http://www.w3.org/2000/svg">
<path d="M0 0C0 0 81.6667 21.0984 200 21.0984C318.333 21.0984 400 0 400 0L400 790C400 790 303.014 766.831 200 766.831C96.986 766.831 3.05176e-05 790 3.05176e-05 790L0 0Z" fill="#F6F6FB"/>
<mask id="mask0_2643_46955" style="mask-type:alpha" maskUnits="userSpaceOnUse" x="0" y="0" width="400" height="790">
<path d="M0 0C0 0 81.6667 21.0984 200 21.0984C318.333 21.0984 400 0 400 0L400 790C400 790 303.014 766.831 200 766.831C96.986 766.831 3.05176e-05 790 3.05176e-05 790L0 0Z" fill="white"/>
</mask>
<g mask="url(#mask0_2643_46955)">
<path fill-rule="evenodd" clip-rule="evenodd" d="M132.746 736.879C79.4017 720.876 26.3337 690.228 10.0446 628.48C-6.25084 566.708 24.2353 511.887 62.1899 469.469C97.8832 429.578 147.388 392.532 189.589 360.953C190.66 360.151 191.727 359.352 192.789 358.557C239.017 323.954 277.001 295.168 302.206 266.999C326.055 240.345 330.072 223.72 326.268 209.299C322.462 194.872 310.852 182.747 277.303 172.662C241.855 162.007 195.131 157.681 138.494 152.794C137.166 152.68 135.833 152.565 134.493 152.449C82.8096 147.997 22.2006 142.775 -27.9517 127.726C-81.2934 111.72 -134.361 81.0722 -150.65 19.3246L-163.526 -29.4859C-166.141 -39.3958 -160.278 -49.736 -150.432 -52.5813L-57.6571 -79.392C-47.8111 -82.2374 -37.7101 -76.5105 -35.0959 -66.6006L-22.2197 -17.79C-18.4347 -3.44201 -6.87561 8.657 26.6875 18.7283C62.1403 29.3668 108.865 33.6809 165.516 38.5692C166.791 38.6792 168.071 38.7894 169.357 38.9002C221.089 43.3573 281.779 48.5863 332.001 63.6824C385.369 79.7242 438.405 110.419 454.699 172.185C470.994 233.957 440.508 288.777 402.553 331.195C366.86 371.086 317.355 408.132 275.155 439.712C274.083 440.514 273.016 441.312 271.954 442.107C225.726 476.71 187.742 505.496 162.538 533.665C138.688 560.319 134.671 576.944 138.475 591.365C142.26 605.713 153.819 617.811 187.378 627.879C222.825 638.514 269.548 642.823 326.189 647.698C327.49 647.81 328.796 647.923 330.109 648.035C381.813 652.478 442.459 657.69 492.641 672.745C545.985 688.749 599.053 719.397 615.342 781.144L644.675 892.337C647.289 902.247 641.426 912.587 631.58 915.433L538.805 942.243C528.959 945.089 518.858 939.362 516.244 929.452L486.911 818.259C483.126 803.911 471.568 791.813 438.009 781.745C402.561 771.11 355.839 766.801 299.198 761.926C297.897 761.814 296.59 761.702 295.277 761.589C243.573 757.146 182.928 751.934 132.746 736.879Z" fill="url(#paint0_linear_2643_46955)" fill-opacity="0.4"/>
<g opacity="0.3" filter="url(#filter0_f_2643_46955)">
<ellipse cx="304" cy="363.168" rx="312.982" ry="168" transform="rotate(90 304 363.168)" fill="url(#paint1_linear_2643_46955)" fill-opacity="0.3"/>
</g>
<g opacity="0.3" filter="url(#filter1_f_2643_46955)">
<ellipse cx="104.5" cy="338.531" rx="325.757" ry="164.5" transform="rotate(90 104.5 338.531)" fill="url(#paint2_linear_2643_46955)" fill-opacity="0.15"/>
</g>
</g>
<defs>
<filter id="filter0_f_2643_46955" x="36" y="-49.8142" width="536" height="825.965" filterUnits="userSpaceOnUse" color-interpolation-filters="sRGB">
<feFlood flood-opacity="0" result="BackgroundImageFix"/>
<feBlend mode="normal" in="SourceGraphic" in2="BackgroundImageFix" result="shape"/>
<feGaussianBlur stdDeviation="50" result="effect1_foregroundBlur_2643_46955"/>
</filter>
<filter id="filter1_f_2643_46955" x="-160" y="-87.2261" width="529" height="851.515" filterUnits="userSpaceOnUse" color-interpolation-filters="sRGB">
<feFlood flood-opacity="0" result="BackgroundImageFix"/>
<feBlend mode="normal" in="SourceGraphic" in2="BackgroundImageFix" result="shape"/>
<feGaussianBlur stdDeviation="50" result="effect1_foregroundBlur_2643_46955"/>
</filter>
<linearGradient id="paint0_linear_2643_46955" x1="406.08" y1="820.829" x2="-45.6212" y2="-154.928" gradientUnits="userSpaceOnUse">
<stop stop-color="#3841FE" stop-opacity="0.03"/>
<stop offset="0.0001" stop-color="#5B62FF" stop-opacity="0"/>
<stop offset="1" stop-color="#B2B5FE" stop-opacity="0.3"/>
</linearGradient>
<linearGradient id="paint1_linear_2643_46955" x1="507.077" y1="349.025" x2="246.158" y2="15.3987" gradientUnits="userSpaceOnUse">
<stop stop-color="#6461F5"/>
<stop offset="1" stop-color="#00D1FF" stop-opacity="0.2"/>
</linearGradient>
<linearGradient id="paint2_linear_2643_46955" x1="315.866" y1="324.682" x2="64.5518" y2="-16.8951" gradientUnits="userSpaceOnUse">
<stop stop-color="#7E19FF"/>
<stop offset="1" stop-color="#00D1FF" stop-opacity="0.2"/>
</linearGradient>
</defs>
</svg>
