<svg width="1920" height="720" viewBox="0 0 1920 720" fill="none" xmlns="http://www.w3.org/2000/svg">
    <mask id="mask0_5_127" style="mask-type:alpha" maskUnits="userSpaceOnUse" x="0" y="0" width="1920" height="700">
        <path d="M0 0.0780636L1920 0V700L0 688.085L0 0.0780636Z" fill="#C4C4C4" />
    </mask>
    <g mask="url(#mask0_5_127)">
        <path d="M0 0C0 0 391.12 62.4718 958.704 62.4718C1526.29 62.4718 1920 0 1920 0V680C1920 680 1452.81 590.446 958.704 590.446C464.599 590.446 0 680 0 680L0 0Z" fill="#F6F6FB" />
        <mask id="mask1_5_127" style="mask-type:alpha" maskUnits="userSpaceOnUse" x="0" y="0" width="1920" height="680">
            <path d="M0 1.39177C0 1.39177 396.767 61.6607 962.255 61.6607C1527.74 61.6607 1920 0 1920 0V678.804C1920 678.804 1454.54 589.356 962.255 589.356C469.974 589.356 0 680 0 680L0 1.39177Z" fill="#F4F3F7" />
        </mask>
        <g mask="url(#mask1_5_127)">
            <path fill-rule="evenodd" clip-rule="evenodd" d="M414.619 147.164C467.07 84.0717 548.503 21.8459 677.468 4.66353C806.484 -12.5256 903.573 25.875 973.132 72.7365C1038.55 116.806 1092.96 177.259 1139.35 228.791C1140.53 230.1 1141.7 231.403 1142.87 232.7C1193.7 289.151 1236.17 335.548 1282.36 366.668C1326.07 396.114 1357.54 401.518 1387.66 397.506C1417.79 393.491 1446.37 380.076 1479.4 340.396C1514.29 298.472 1540.98 242.855 1572.63 175.425C1573.37 173.844 1574.11 172.257 1574.86 170.662C1603.72 109.129 1637.57 36.9695 1686.89 -22.3472C1739.34 -85.4363 1820.77 -147.662 1949.74 -164.844L2089.16 -183.42L2121.27 -39.3267L1973.72 -10.1734C1944.73 0.0274057 1915.24 7.17423 1882.24 46.8705C1847.38 88.8016 1820.71 144.42 1789.06 211.867C1788.35 213.385 1787.63 214.909 1786.91 216.44C1758.02 278.03 1724.13 350.286 1674.69 409.684C1622.16 472.803 1540.64 534.989 1411.64 552.176C1282.63 569.366 1185.54 530.965 1115.98 484.103C1050.56 440.034 996.146 379.581 949.76 328.048C948.582 326.74 947.41 325.437 946.242 324.14C895.41 267.689 852.941 221.292 806.748 190.172C763.039 160.726 731.57 155.322 701.451 159.334C671.484 163.327 642.975 176.682 609.979 216.373C575.125 258.298 548.469 313.914 516.848 381.349C516.122 382.898 515.393 384.454 514.66 386.016C485.809 447.574 451.969 519.777 402.628 579.129C350.177 642.222 268.744 704.447 139.779 721.63L-129.933 757.564L-153.916 602.893L115.796 566.959C145.763 562.966 174.272 549.612 207.268 509.92C242.122 467.996 268.778 412.379 300.399 344.944C301.125 343.395 301.854 341.839 302.587 340.276C331.438 278.718 365.278 206.516 414.619 147.164Z" fill="url(#paint0_linear_5_127)" fill-opacity="0.4" />
            <path d="M407 36C407 108.194 305.46 287 0 287" stroke="#E7D5FE" stroke-width="5" />
        </g>
        <g opacity="0.3" filter="url(#filter0_f_5_127)">
            <ellipse cx="1152.38" cy="360.495" rx="318.947" ry="311.605" transform="rotate(90 1152.38 360.495)" fill="url(#paint1_linear_5_127)" fill-opacity="0.3" />
        </g>
        <g opacity="0.3" filter="url(#filter1_f_5_127)">
            <ellipse cx="784.788" cy="335.255" rx="332.256" ry="303.803" transform="rotate(90 784.788 335.255)" fill="url(#paint2_linear_5_127)" fill-opacity="0.15" />
        </g>
    </g>
    <defs>
        <filter id="filter0_f_5_127" x="740.777" y="-58.452" width="823.209" height="837.894" filterUnits="userSpaceOnUse" color-interpolation-filters="sRGB">
            <feFlood flood-opacity="0" result="BackgroundImageFix" />
            <feBlend mode="normal" in="SourceGraphic" in2="BackgroundImageFix" result="shape" />
            <feGaussianBlur stdDeviation="50" result="effect1_foregroundBlur_5_127" />
        </filter>
        <filter id="filter1_f_5_127" x="380.985" y="-97.0009" width="807.606" height="864.512" filterUnits="userSpaceOnUse" color-interpolation-filters="sRGB">
            <feFlood flood-opacity="0" result="BackgroundImageFix" />
            <feBlend mode="normal" in="SourceGraphic" in2="BackgroundImageFix" result="shape" />
            <feGaussianBlur stdDeviation="50" result="effect1_foregroundBlur_5_127" />
        </filter>
        <linearGradient id="paint0_linear_5_127" x1="-510.043" y1="975.776" x2="1564.69" y2="-885.762" gradientUnits="userSpaceOnUse">
            <stop stop-color="#3841FE" stop-opacity="0.03" />
            <stop offset="0.0001" stop-color="#5B62FF" stop-opacity="0" />
            <stop offset="1" stop-color="#B2B5FE" stop-opacity="0.3" />
        </linearGradient>
        <linearGradient id="paint1_linear_5_127" x1="1359.33" y1="334.262" x2="890.23" y2="4.71037" gradientUnits="userSpaceOnUse">
            <stop stop-color="#6461F5" />
            <stop offset="1" stop-color="#00D1FF" stop-opacity="0.2" />
        </linearGradient>
        <linearGradient id="paint2_linear_5_127" x1="1000.37" y1="309.679" x2="533.549" y2="-40.7314" gradientUnits="userSpaceOnUse">
            <stop stop-color="#7E19FF" />
            <stop offset="1" stop-color="#00D1FF" stop-opacity="0.2" />
        </linearGradient>
    </defs>
</svg>