<svg width="1614" height="305" viewBox="0 0 1614 305" fill="none" xmlns="http://www.w3.org/2000/svg">
<path d="M0 298.012C160.384 183.034 459.587 -36.9371 748.007 91.851C1036.43 220.639 1190.75 365.9 1469.06 272.055C1674.16 202.896 1617.59 83.0441 1542.89 0" stroke="url(#paint0_linear_3003_85690)" stroke-opacity="0.2" stroke-width="5"/>
<defs>
<linearGradient id="paint0_linear_3003_85690" x1="1591.47" y1="-110.93" x2="1504.78" y2="530.898" gradientUnits="userSpaceOnUse">
<stop stop-color="#5E00D7" stop-opacity="0"/>
<stop offset="0.374297" stop-color="#D5C6EB" stop-opacity="0.61"/>
<stop offset="0.772206" stop-color="#D5C6EB"/>
<stop offset="1" stop-color="#5E00D7" stop-opacity="0"/>
</linearGradient>
</defs>
</svg>
