<?xml version="1.0" standalone="no"?>
<!DOCTYPE svg PUBLIC "-//W3C//DTD SVG 20010904//EN"
 "http://www.w3.org/TR/2001/REC-SVG-20010904/DTD/svg10.dtd">
<svg version="1.0" xmlns="http://www.w3.org/2000/svg"
 width="896.000000pt" height="896.000000pt" viewBox="0 0 896.000000 896.000000"
 preserveAspectRatio="xMidYMid meet">
<metadata>
Created by potrace 1.14, written by Peter Selinger 2001-2017
</metadata>
<g transform="translate(0.000000,896.000000) scale(0.100000,-0.100000)"
fill="#000000" stroke="none">
<path d="M542 7349 c-13 -5 -28 -7 -32 -4 -5 3 -11 1 -15 -5 -3 -5 -14 -10
-23 -10 -31 0 -163 -69 -216 -113 -126 -104 -195 -213 -236 -373 -20 -75 -20
-123 -20 -2264 0 -2169 0 -2187 21 -2261 22 -82 68 -189 81 -189 4 0 8 -7 8
-16 0 -24 158 -175 223 -213 60 -35 147 -68 207 -78 51 -9 188 -9 240 0 58 9
168 46 176 58 3 5 10 7 15 4 5 -4 9 -1 9 4 0 6 5 11 12 11 16 0 115 76 158
121 98 102 153 214 179 364 3 22 6 286 6 587 0 357 3 549 10 551 5 2 34 4 63
3 l54 -1 154 -263 c85 -145 154 -267 154 -272 0 -6 4 -10 9 -10 5 0 11 -6 13
-13 2 -10 121 -217 159 -277 26 -42 299 -514 299 -517 0 -13 88 -130 128 -171
75 -76 191 -146 277 -167 17 -4 39 -9 50 -12 46 -11 209 -10 256 2 27 7 49 11
49 9 0 -2 35 12 78 30 91 38 154 79 222 145 52 49 130 156 130 177 0 7 3 14 8
16 10 4 50 123 58 173 11 62 8 205 -5 255 -21 79 -53 153 -108 244 -29 49 -53
92 -53 96 0 4 -8 18 -18 31 -11 13 -30 44 -44 69 -22 40 -80 137 -115 195 -7
11 -15 27 -19 35 -4 7 -48 82 -97 165 -49 82 -101 170 -115 195 -14 25 -31 54
-38 65 -21 30 -17 40 26 61 22 10 40 22 40 27 0 4 5 7 11 7 20 0 186 121 273
200 87 79 196 196 235 253 8 12 18 24 21 27 11 9 66 93 112 170 115 196 197
421 234 640 12 67 14 85 20 170 12 150 8 316 -12 447 -8 58 -13 79 -43 213
-39 171 -196 501 -303 635 -4 6 -29 37 -55 70 -72 92 -238 254 -328 320 -22
17 -42 32 -45 35 -3 3 -23 17 -45 31 -163 107 -263 156 -480 235 -39 14 -189
53 -225 58 -47 7 -95 16 -125 23 -47 11 -1637 13 -1663 2z m1511 -1332 c165
-24 338 -141 415 -282 26 -48 63 -135 57 -135 -2 0 2 -17 9 -37 11 -34 14
-187 3 -233 -11 -51 -52 -155 -73 -185 -13 -20 -24 -39 -24 -43 0 -9 -119
-123 -145 -139 -147 -92 -173 -96 -590 -99 -198 -1 -362 2 -365 6 -4 6 -5
1061 -1 1135 1 20 8 20 338 19 186 -1 355 -4 376 -7z"/>
<path d="M6016 6162 c-2 -1 -39 -5 -82 -8 -82 -6 -129 -11 -129 -14 0 0 -16
-3 -35 -5 -19 -2 -47 -6 -62 -9 -16 -3 -40 -8 -55 -11 -108 -22 -261 -71 -387
-124 -126 -53 -385 -199 -394 -223 -2 -4 -8 -8 -14 -8 -5 0 -15 -6 -23 -12 -7
-7 -25 -22 -41 -33 -15 -11 -35 -27 -44 -35 -9 -8 -36 -31 -60 -51 -66 -53
-197 -190 -253 -262 -12 -15 -30 -38 -39 -49 -10 -11 -39 -53 -65 -92 -27 -39
-50 -73 -53 -76 -3 -3 -16 -25 -29 -50 -14 -25 -27 -47 -31 -50 -7 -6 -110
-226 -110 -236 0 -3 -6 -20 -14 -37 -61 -133 -124 -415 -142 -629 -6 -78 -6
-323 0 -373 16 -123 23 -173 31 -220 9 -51 46 -199 55 -220 8 -19 21 -59 26
-80 15 -64 165 -362 217 -430 4 -5 35 -48 70 -95 86 -117 97 -130 223 -255 61
-61 157 -145 215 -188 57 -42 109 -81 116 -87 7 -5 17 -10 23 -10 5 0 10 -4
10 -10 0 -5 5 -10 11 -10 6 0 23 -8 37 -19 137 -95 487 -237 685 -277 10 -2
26 -5 35 -8 9 -3 35 -7 56 -11 21 -3 48 -7 60 -10 26 -5 69 -11 161 -22 39 -4
300 -8 580 -8 488 0 512 1 553 20 23 11 42 23 42 27 0 5 6 8 13 8 15 0 67 54
67 69 0 6 4 11 9 11 5 0 11 8 14 18 4 9 12 33 20 52 15 40 15 126 -1 167 -5
16 -14 37 -18 48 -4 11 -8 22 -9 25 -43 165 -39 294 12 440 30 86 34 184 10
240 -20 47 -71 109 -110 135 -70 47 -78 48 -547 51 -481 2 -596 7 -720 29 -14
3 -52 9 -85 15 -155 25 -330 95 -434 174 -63 47 -130 113 -131 129 0 4 0 10 0
14 0 5 528 8 1172 9 1025 0 1219 3 1297 19 157 31 290 99 382 194 68 70 103
127 136 224 42 119 40 355 -5 522 -6 22 -13 54 -15 70 -6 40 -63 212 -99 300
-125 300 -345 607 -579 805 -29 25 -60 52 -69 60 -29 27 -201 144 -266 181
-248 143 -542 242 -809 274 -108 13 -372 25 -379 17z m244 -1082 c8 -1 29 -6
45 -11 17 -4 41 -10 55 -13 61 -10 194 -74 289 -138 69 -47 192 -175 234 -245
39 -65 87 -172 87 -196 0 -12 -141 -14 -862 -12 -475 1 -864 2 -865 3 -7 5 45
126 78 182 85 145 213 260 385 345 50 25 100 47 111 49 11 3 38 10 59 16 22 6
57 14 79 17 22 3 42 7 45 10 4 4 209 -2 260 -7z"/>
<path d="M7916 3063 c-278 -73 -461 -299 -470 -582 -12 -384 350 -691 723
-614 72 14 72 14 116 32 77 30 123 62 195 131 82 79 121 140 160 250 34 95 35
265 1 370 -12 41 -32 87 -43 102 -11 16 -17 28 -14 28 19 0 -92 124 -156 175
-90 72 -240 125 -355 124 -28 -1 -55 1 -60 3 -4 3 -48 -6 -97 -19z"/>
</g>
</svg>
